<svg width="40" height="40" viewBox="0 0 40 40" fill="none" xmlns="http://www.w3.org/2000/svg">
<g clip-path="url(#clip0)">
<path d="M12.5698 17.9666L10.0755 24.6195V24.62C10.6859 27.0584 12.0275 29.2139 13.9266 30.8399L17.056 29.6664C13.732 26.6892 12.0914 22.3101 12.5698 17.9666Z" fill="#F2F2F2"/>
<path d="M9.2311 26.8715L7.3193 31.9691C7.0908 32.578 7.68642 33.1802 8.29982 32.9497L12.3331 31.4375C10.9803 30.1245 9.93087 28.5597 9.2311 26.8715Z" fill="#F2F2F2"/>
<path d="M17.9167 17.346L15.0736 14.503C12.7685 19.7028 14.3444 25.6461 18.6936 29.0524L21.7281 27.9145C19.063 25.1623 17.6216 21.3208 17.9167 17.346Z" fill="#F2F2F2"/>
<path d="M19.404 18.8333C19.5208 22.0654 20.9284 25.1197 23.3098 27.3209H23.3104L25.5344 26.4871C26.0539 26.2921 26.1961 25.6254 25.8056 25.2349L19.404 18.8333Z" fill="#F2F2F2"/>
<path d="M24.9672 21.2263C25.2646 21.5237 25.7469 21.5237 26.0443 21.2263C28.9098 18.3607 31.7 19.2467 31.7279 19.2559C32.127 19.3889 32.5583 19.1733 32.6914 18.7742C32.8245 18.3752 32.6087 17.9438 32.2096 17.8107C32.0594 17.7607 28.4911 16.6252 24.9672 20.1491C24.6697 20.4465 24.6696 20.9289 24.9672 21.2263Z" fill="#F2F2F2"/>
<path d="M20.12 15.3017C23.644 11.7782 22.5081 8.20953 22.4583 8.05923C22.3253 7.66011 21.8937 7.44481 21.4945 7.57785C21.0959 7.71089 20.8801 8.14199 21.0132 8.54111C21.0223 8.56904 21.9084 11.3593 19.0425 14.2247C18.7469 14.5203 18.7439 15.0022 19.0425 15.3017C19.3415 15.6007 19.8233 15.5984 20.12 15.3017Z" fill="#F2F2F2"/>
<path d="M21.7356 16.9176C21.4382 17.2151 21.4382 17.6973 21.7356 17.9948C22.0304 18.2896 22.5092 18.2934 22.8083 17.9993C23.2018 17.8033 24.4231 18.5386 25.1018 17.8601C25.7733 17.1886 25.0599 15.9921 25.2381 15.5728C25.6579 15.3942 26.854 16.1079 27.5254 15.4365C28.197 14.765 27.4836 13.5686 27.6617 13.1492C28.0822 12.9705 29.2776 13.6843 29.949 13.0129C30.6206 12.3414 29.9072 11.1449 30.0854 10.7255C30.5034 10.5478 31.7018 11.26 32.3728 10.5892C33.0512 9.91065 32.3172 8.68715 32.5119 8.2957C32.8049 7.99794 32.8033 7.51905 32.5073 7.22306C32.2099 6.9256 31.7277 6.9256 31.4302 7.22306C30.8298 7.82341 30.9473 8.67095 31.0604 9.27689C30.4544 9.1638 29.607 9.04635 29.0066 9.64665C28.4063 10.247 28.5237 11.0945 28.6368 11.7005C28.0309 11.5874 27.1833 11.4699 26.583 12.0703C25.9826 12.6706 26.1001 13.5182 26.2132 14.1241C25.6072 14.011 24.7597 13.8935 24.1594 14.4939C23.559 15.0942 23.6765 15.9418 23.7896 16.5477C23.1836 16.4347 22.3359 16.3173 21.7356 16.9176Z" fill="#F2F2F2"/>
<path d="M26.0443 10.4546C26.3418 10.1571 26.3418 9.67489 26.0443 9.37743C25.7469 9.07997 25.2646 9.07997 24.9672 9.37743C24.6697 9.67489 24.6697 10.1571 24.9672 10.4546C25.2646 10.752 25.7469 10.752 26.0443 10.4546Z" fill="#F2F2F2"/>
<path d="M30.8916 16.0635C31.3122 16.0635 31.6532 15.7225 31.6532 15.3019C31.6532 14.8812 31.3122 14.5402 30.8916 14.5402C30.4709 14.5402 30.1299 14.8812 30.1299 15.3019C30.1299 15.7225 30.4709 16.0635 30.8916 16.0635Z" fill="#F2F2F2"/>
<path d="M29.2758 22.3035C28.9783 22.6009 28.9783 23.0832 29.2758 23.3806C29.5732 23.6781 30.0555 23.6781 30.3529 23.3806C30.6504 23.0832 30.6504 22.6009 30.3529 22.3035C30.0555 22.006 29.5732 22.006 29.2758 22.3035Z" fill="#F2F2F2"/>
<path d="M18.5041 11.5317C18.8015 11.2343 18.8015 10.752 18.5041 10.4546C18.2066 10.1571 17.7244 10.1571 17.4269 10.4546C17.1295 10.752 17.1295 11.2343 17.4269 11.5317C17.7244 11.8292 18.2067 11.8292 18.5041 11.5317Z" fill="#F2F2F2"/>
</g>
<defs>
<clipPath id="clip0">
<rect x="7" y="7" width="26" height="26" fill="white"/>
</clipPath>
</defs>
</svg>
