<svg width="40" height="40" viewBox="0 0 40 40" fill="none" xmlns="http://www.w3.org/2000/svg">
<path fill-rule="evenodd" clip-rule="evenodd" d="M13 16C13 12.134 16.134 9 20 9C23.866 9 27 12.134 27 16C27 16.8734 26.5839 18.2246 25.8387 19.8742C25.1114 21.4841 24.1334 23.2461 23.1432 24.8912C22.1551 26.5328 21.1654 28.0406 20.4219 29.1389C20.2702 29.363 20.1288 29.5699 20 29.7572C19.8712 29.5699 19.7298 29.363 19.5781 29.1389C18.8346 28.0406 17.8449 26.5328 16.8568 24.8912C15.8666 23.2461 14.8886 21.4841 14.1613 19.8742C13.4161 18.2246 13 16.8734 13 16ZM19.189 32.085C19.1891 32.0852 19.1892 32.0853 20 31.5L19.1892 32.0853C19.3772 32.3457 19.6788 32.5 20 32.5C20.3212 32.5 20.6228 32.3457 20.8108 32.0853L20 31.5C20.8108 32.0853 20.8109 32.0852 20.811 32.085L20.8114 32.0845L20.8127 32.0827L20.8175 32.0761L20.8355 32.0509L20.9043 31.9547C20.9642 31.8707 21.0514 31.7476 21.1622 31.5897C21.3838 31.2741 21.6995 30.8193 22.0781 30.26C22.8346 29.1424 23.8449 27.6036 24.8568 25.9226C25.8666 24.2449 26.8886 22.408 27.6613 20.6975C28.4161 19.0267 29 17.3358 29 16C29 11.0294 24.9706 7 20 7C15.0294 7 11 11.0294 11 16C11 17.3358 11.5839 19.0267 12.3387 20.6975C13.1114 22.408 14.1334 24.2449 15.1432 25.9226C16.1551 27.6036 17.1654 29.1424 17.9219 30.26C18.3005 30.8193 18.6162 31.2741 18.8378 31.5897C18.9486 31.7476 19.0358 31.8707 19.0957 31.9547L19.1645 32.0509L19.1825 32.0761L19.1873 32.0827L19.1886 32.0845L19.189 32.085ZM17 16C17 14.3431 18.3431 13 20 13C21.6569 13 23 14.3431 23 16C23 17.6569 21.6569 19 20 19C18.3431 19 17 17.6569 17 16ZM20 11C17.2386 11 15 13.2386 15 16C15 18.7614 17.2386 21 20 21C22.7614 21 25 18.7614 25 16C25 13.2386 22.7614 11 20 11Z" fill="#3C3D46"/>
</svg>
