<svg width="40" height="40" viewBox="0 0 40 40" fill="none" xmlns="http://www.w3.org/2000/svg">
<path d="M29.4325 11.7185L21.7379 10.2739C21.6933 10.2654 21.6474 10.267 21.6036 10.2786C21.5597 10.2901 21.5189 10.3113 21.4842 10.3405C21.4494 10.37 21.4214 10.4069 21.4025 10.4485C21.3836 10.4901 21.3741 10.5353 21.3748 10.581V25.1169C20.7498 24.3574 19.7042 23.8593 18.5293 23.8593C16.6176 23.8593 15.0605 25.1766 15.0605 26.7957C15.0605 28.4148 16.6185 29.732 18.5302 29.732C20.4419 29.732 21.9998 28.4148 21.9998 26.7957V16.7655L29.3207 18.1405C29.3656 18.1489 29.4119 18.1472 29.4561 18.1357C29.5003 18.1241 29.5414 18.1028 29.5765 18.0735C29.6115 18.0441 29.6397 18.0074 29.6588 17.9659C29.678 17.9244 29.6877 17.8791 29.6873 17.8334V12.0256C29.6873 11.9527 29.6618 11.8821 29.6153 11.826C29.5688 11.77 29.5041 11.7319 29.4325 11.7185Z" fill="#343A45"/>
<path d="M10.625 12.6875H17.4351C17.518 12.6875 17.5975 12.6546 17.6561 12.596C17.7147 12.5374 17.7476 12.4579 17.7476 12.375C17.7476 12.2921 17.7147 12.2126 17.6561 12.154C17.5975 12.0954 17.518 12.0625 17.4351 12.0625H10.625C10.5421 12.0625 10.4626 12.0954 10.404 12.154C10.3454 12.2126 10.3125 12.2921 10.3125 12.375C10.3125 12.4579 10.3454 12.5374 10.404 12.596C10.4626 12.6546 10.5421 12.6875 10.625 12.6875Z" fill="#343A45"/>
<path d="M10.625 16.25H17.4351C17.518 16.25 17.5975 16.2171 17.6561 16.1585C17.7147 16.0999 17.7476 16.0204 17.7476 15.9375C17.7476 15.8546 17.7147 15.7751 17.6561 15.7165C17.5975 15.6579 17.518 15.625 17.4351 15.625H10.625C10.5421 15.625 10.4626 15.6579 10.404 15.7165C10.3454 15.7751 10.3125 15.8546 10.3125 15.9375C10.3125 16.0204 10.3454 16.0999 10.404 16.1585C10.4626 16.2171 10.5421 16.25 10.625 16.25Z" fill="#343A45"/>
<path d="M17.7476 19.4375C17.7476 19.3546 17.7147 19.2751 17.6561 19.2165C17.5975 19.1579 17.518 19.125 17.4351 19.125H10.625C10.5421 19.125 10.4626 19.1579 10.404 19.2165C10.3454 19.2751 10.3125 19.3546 10.3125 19.4375C10.3125 19.5204 10.3454 19.5999 10.404 19.6585C10.4626 19.7171 10.5421 19.75 10.625 19.75H17.4351C17.518 19.75 17.5975 19.7171 17.6561 19.6585C17.7147 19.5999 17.7476 19.5204 17.7476 19.4375V19.4375Z" fill="#343A45"/>
</svg>
