<svg width="40" height="40" viewBox="0 0 40 40" fill="none" xmlns="http://www.w3.org/2000/svg">
<path d="M13.9354 17.011C14.6345 16.4464 15.4053 15.9833 16.2387 15.6308C16.4628 15.5352 16.6929 15.4486 16.9199 15.3739V13.0198C16.9199 11.3468 18.2792 9.98748 19.9522 9.98748H20.0448C21.7178 9.98748 23.0771 11.3468 23.0771 13.0198H26.0646C26.0646 9.70068 23.3639 7 20.0478 7H19.9552C16.6361 7 13.9354 9.70068 13.9354 13.0198V17.011Z" fill="#F2F2F2"/>
<path d="M28.4665 24.5335C28.4665 29.2089 24.6754 33 20 33C15.3246 33 11.5334 29.2118 11.5334 24.5335C11.5334 22.2361 12.4506 20.1509 13.9354 18.6242C14.7719 17.7669 15.7876 17.0857 16.9228 16.6406C17.8758 16.2672 18.9155 16.064 19.9999 16.064C21.0844 16.064 22.124 16.2672 23.077 16.6406C24.2123 17.0827 25.228 17.7639 26.0645 18.6242C27.5523 20.1509 28.4665 22.2361 28.4665 24.5335ZM22.1809 22.8247C22.151 21.6685 21.2099 20.7274 20.0538 20.7005C18.826 20.6707 17.8191 21.6595 17.8191 22.8814C17.8191 23.0099 17.8311 23.1353 17.852 23.2548C17.9596 23.8732 18.327 24.405 18.8409 24.7277C19.053 24.8621 19.1605 25.113 19.1067 25.355L18.4584 28.4292C18.4196 28.6144 18.56 28.7907 18.7512 28.7907H21.2487C21.4399 28.7907 21.5804 28.6174 21.5415 28.4292L20.8933 25.355C20.8425 25.1101 20.947 24.8591 21.1591 24.7247C21.673 24.402 22.0404 23.8732 22.148 23.2518C22.1719 23.1144 22.1838 22.971 22.1809 22.8247Z" fill="#F2F2F2"/>
</svg>
